Processor16bit/Implementation/two_port_memory/isim.log
ISim log file
Running: C:\Users\eckelsjd\Documents\RHIT\sophomore\winter\CSSE232\3B-dripchar-eckelsjd-morganbm-tuey\Implementation\two_port_memory\mem_unit_tb_isim_beh.exe -intstyle ise -gui -tclbatch isim.cmd -wdb C:/Users/eckelsjd/Documents/RHIT/sophomore/winter/CSSE232/3B-dripchar-eckelsjd-morganbm-tuey/Implementation/two_port_memory/mem_unit_tb_isim_beh.wdb 
ISim P.20131013 (signature 0x7708f090)
----------------------------------------------------------------------
INFO:Security:50 - The XILINXD_LICENSE_FILE environment variable is set to '2100@ise.csse.rose-hulman.edu'.
INFO:Security:53 - The LM_LICENSE_FILE environment variable is not set.
WARNING:Security:43 - No license file was found in the standard Xilinx license directory.
WARNING:Security:44 - Since no license file was found,
       please run the Xilinx License Configuration Manager
       (xlcm or "Manage Xilinx Licenses")
       to assist in obtaining a license.
WARNING:Security:42 - Your software subscription period has lapsed. Your current version of Xilinx tools will continue to function, but you no longer qualify for Xilinx software updates or new releases.


----------------------------------------------------------------------
This is a Full version of ISim.
Time resolution is 1 ps
# onerror resume
# wave add /
# run 1000000 ns
Simulator is doing circuit initialization process.
WARNING: File relPrime.txt referenced on C:/Users/eckelsjd/Documents/RHIT/sophomore/winter/CSSE232/3B-dripchar-eckelsjd-morganbm-tuey/Implementation/two_port_memory/mem_unit.v at line 76 cannot be opened for reading. Please ensure that this file is available in the current working directory.Finished circuit initialization process.
Port1
address =     0; actual =   100; expected =   100 PASSED 

address =  1000; actual =     0; expected =     0 PASSED 

address =     0; actual =    99; expected =    99 PASSED 

address =  1000; actual =     1; expected =     1 PASSED 

address =     0; actual =    98; expected =    98 PASSED 

address =  1000; actual =     2; expected =     2 PASSED 

address =     0; actual =    97; expected =    97 PASSED 

address =  1000; actual =     3; expected =     3 PASSED 

address =     0; actual =    96; expected =    96 PASSED 

address =  1000; actual =     4; expected =     4 PASSED 

address =     0; actual =    95; expected =    95 PASSED 

address =  1000; actual =     5; expected =     5 PASSED 

address =     0; actual =    94; expected =    94 PASSED 

address =  1000; actual =     6; expected =     6 PASSED 

address =     0; actual =    93; expected =    93 PASSED 

address =  1000; actual =     7; expected =     7 PASSED 

address =     0; actual =    92; expected =    92 PASSED 

address =  1000; actual =     8; expected =     8 PASSED 

address =     0; actual =    91; expected =    91 PASSED 

address =  1000; actual =     9; expected =     9 PASSED 

address =     0; actual =    90; expected =    90 PASSED 

address =  1000; actual =    10; expected =    10 PASSED 

address =     0; actual =    89; expected =    89 PASSED 

address =  1000; actual =    11; expected =    11 PASSED 

address =     0; actual =    88; expected =    88 PASSED 

address =  1000; actual =    12; expected =    12 PASSED 

address =     0; actual =    87; expected =    87 PASSED 

address =  1000; actual =    13; expected =    13 PASSED 

address =     0; actual =    86; expected =    86 PASSED 

address =  1000; actual =    14; expected =    14 PASSED 

address =     0; actual =    85; expected =    85 PASSED 

address =  1000; actual =    15; expected =    15 PASSED 

address =     0; actual =    84; expected =    84 PASSED 

address =  1000; actual =    16; expected =    16 PASSED 

address =     0; actual =    83; expected =    83 PASSED 

address =  1000; actual =    17; expected =    17 PASSED 

address =     0; actual =    82; expected =    82 PASSED 

address =  1000; actual =    18; expected =    18 PASSED 

address =     0; actual =    81; expected =    81 PASSED 

address =  1000; actual =    19; expected =    19 PASSED 

address =     0; actual =    80; expected =    80 PASSED 

address =  1000; actual =    20; expected =    20 PASSED 

address =     0; actual =    79; expected =    79 PASSED 

address =  1000; actual =    21; expected =    21 PASSED 

address =     0; actual =    78; expected =    78 PASSED 

address =  1000; actual =    22; expected =    22 PASSED 

address =     0; actual =    77; expected =    77 PASSED 

address =  1000; actual =    23; expected =    23 PASSED 

address =     0; actual =    76; expected =    76 PASSED 

address =  1000; actual =    24; expected =    24 PASSED 

address =     0; actual =    75; expected =    75 PASSED 

address =  1000; actual =    25; expected =    25 PASSED 

address =     0; actual =    74; expected =    74 PASSED 

address =  1000; actual =    26; expected =    26 PASSED 

address =     0; actual =    73; expected =    73 PASSED 

address =  1000; actual =    27; expected =    27 PASSED 

address =     0; actual =    72; expected =    72 PASSED 

address =  1000; actual =    28; expected =    28 PASSED 

address =     0; actual =    71; expected =    71 PASSED 

address =  1000; actual =    29; expected =    29 PASSED 

address =     1; actual =   100; expected =   100 PASSED 

address =   999; actual =     0; expected =     0 PASSED 

address =     1; actual =    99; expected =    99 PASSED 

address =   999; actual =     1; expected =     1 PASSED 

address =     1; actual =    98; expected =    98 PASSED 

address =   999; actual =     2; expected =     2 PASSED 

address =     1; actual =    97; expected =    97 PASSED 

address =   999; actual =     3; expected =     3 PASSED 

address =     1; actual =    96; expected =    96 PASSED 

address =   999; actual =     4; expected =     4 PASSED 

address =     1; actual =    95; expected =    95 PASSED 

address =   999; actual =     5; expected =     5 PASSED 

address =     1; actual =    94; expected =    94 PASSED 

address =   999; actual =     6; expected =     6 PASSED 

address =     1; actual =    93; expected =    93 PASSED 

address =   999; actual =     7; expected =     7 PASSED 

address =     1; actual =    92; expected =    92 PASSED 

address =   999; actual =     8; expected =     8 PASSED 

address =     1; actual =    91; expected =    91 PASSED 

address =   999; actual =     9; expected =     9 PASSED 

address =     1; actual =    90; expected =    90 PASSED 

address =   999; actual =    10; expected =    10 PASSED 

address =     1; actual =    89; expected =    89 PASSED 

address =   999; actual =    11; expected =    11 PASSED 

address =     1; actual =    88; expected =    88 PASSED 

address =   999; actual =    12; expected =    12 PASSED 

address =     1; actual =    87; expected =    87 PASSED 

address =   999; actual =    13; expected =    13 PASSED 

address =     1; actual =    86; expected =    86 PASSED 

address =   999; actual =    14; expected =    14 PASSED 

address =     1; actual =    85; expected =    85 PASSED 

address =   999; actual =    15; expected =    15 PASSED 

address =     1; actual =    84; expected =    84 PASSED 

address =   999; actual =    16; expected =    16 PASSED 

address =     1; actual =    83; expected =    83 PASSED 

address =   999; actual =    17; expected =    17 PASSED 

address =     1; actual =    82; expected =    82 PASSED 

address =   999; actual =    18; expected =    18 PASSED 

address =     1; actual =    81; expected =    81 PASSED 

address =   999; actual =    19; expected =    19 PASSED 

address =     1; actual =    80; expected =    80 PASSED 

address =   999; actual =    20; expected =    20 PASSED 

address =     1; actual =    79; expected =    79 PASSED 

address =   999; actual =    21; expected =    21 PASSED 

address =     1; actual =    78; expected =    78 PASSED 

address =   999; actual =    22; expected =    22 PASSED 

address =     1; actual =    77; expected =    77 PASSED 

address =   999; actual =    23; expected =    23 PASSED 

address =     1; actual =    76; expected =    76 PASSED 

address =   999; actual =    24; expected =    24 PASSED 

address =     1; actual =    75; expected =    75 PASSED 

address =   999; actual =    25; expected =    25 PASSED 

address =     1; actual =    74; expected =    74 PASSED 

address =   999; actual =    26; expected =    26 PASSED 

address =     1; actual =    73; expected =    73 PASSED 

address =   999; actual =    27; expected =    27 PASSED 

address =     1; actual =    72; expected =    72 PASSED 

address =   999; actual =    28; expected =    28 PASSED 

address =     1; actual =    71; expected =    71 PASSED 

address =   999; actual =    29; expected =    29 PASSED 

address =     2; actual =   100; expected =   100 PASSED 

address =   998; actual =     0; expected =     0 PASSED 

address =     2; actual =    99; expected =    99 PASSED 

address =   998; actual =     1; expected =     1 PASSED 

address =     2; actual =    98; expected =    98 PASSED 

address =   998; actual =     2; expected =     2 PASSED 

address =     2; actual =    97; expected =    97 PASSED 

address =   998; actual =     3; expected =     3 PASSED 

address =     2; actual =    96; expected =    96 PASSED 

address =   998; actual =     4; expected =     4 PASSED 

address =     2; actual =    95; expected =    95 PASSED 

address =   998; actual =     5; expected =     5 PASSED 

address =     2; actual =    94; expected =    94 PASSED 

address =   998; actual =     6; expected =     6 PASSED 

address =     2; actual =    93; expected =    93 PASSED 

address =   998; actual =     7; expected =     7 PASSED 

address =     2; actual =    92; expected =    92 PASSED 

address =   998; actual =     8; expected =     8 PASSED 

address =     2; actual =    91; expected =    91 PASSED 

address =   998; actual =     9; expected =     9 PASSED 

address =     2; actual =    90; expected =    90 PASSED 

address =   998; actual =    10; expected =    10 PASSED 

address =     2; actual =    89; expected =    89 PASSED 

address =   998; actual =    11; expected =    11 PASSED 

address =     2; actual =    88; expected =    88 PASSED 

address =   998; actual =    12; expected =    12 PASSED 

address =     2; actual =    87; expected =    87 PASSED 

address =   998; actual =    13; expected =    13 PASSED 

address =     2; actual =    86; expected =    86 PASSED 

address =   998; actual =    14; expected =    14 PASSED 

address =     2; actual =    85; expected =    85 PASSED 

address =   998; actual =    15; expected =    15 PASSED 

address =     2; actual =    84; expected =    84 PASSED 

address =   998; actual =    16; expected =    16 PASSED 

address =     2; actual =    83; expected =    83 PASSED 

address =   998; actual =    17; expected =    17 PASSED 

address =     2; actual =    82; expected =    82 PASSED 

address =   998; actual =    18; expected =    18 PASSED 

address =     2; actual =    81; expected =    81 PASSED 

address =   998; actual =    19; expected =    19 PASSED 

address =     2; actual =    80; expected =    80 PASSED 

address =   998; actual =    20; expected =    20 PASSED 

address =     2; actual =    79; expected =    79 PASSED 

address =   998; actual =    21; expected =    21 PASSED 

address =     2; actual =    78; expected =    78 PASSED 

address =   998; actual =    22; expected =    22 PASSED 

address =     2; actual =    77; expected =    77 PASSED 

address =   998; actual =    23; expected =    23 PASSED 

address =     2; actual =    76; expected =    76 PASSED 

address =   998; actual =    24; expected =    24 PASSED 

address =     2; actual =    75; expected =    75 PASSED 

address =   998; actual =    25; expected =    25 PASSED 

address =     2; actual =    74; expected =    74 PASSED 

address =   998; actual =    26; expected =    26 PASSED 

address =     2; actual =    73; expected =    73 PASSED 

address =   998; actual =    27; expected =    27 PASSED 

address =     2; actual =    72; expected =    72 PASSED 

address =   998; actual =    28; expected =    28 PASSED 

address =     2; actual =    71; expected =    71 PASSED 

address =   998; actual =    29; expected =    29 PASSED 

address =     3; actual =   100; expected =   100 PASSED 

address =   997; actual =     0; expected =     0 PASSED 

address =     3; actual =    99; expected =    99 PASSED 

address =   997; actual =     1; expected =     1 PASSED 

address =     3; actual =    98; expected =    98 PASSED 

address =   997; actual =     2; expected =     2 PASSED 

address =     3; actual =    97; expected =    97 PASSED 

address =   997; actual =     3; expected =     3 PASSED 

address =     3; actual =    96; expected =    96 PASSED 

address =   997; actual =     4; expected =     4 PASSED 

address =     3; actual =    95; expected =    95 PASSED 

address =   997; actual =     5; expected =     5 PASSED 

address =     3; actual =    94; expected =    94 PASSED 

address =   997; actual =     6; expected =     6 PASSED 

address =     3; actual =    93; expected =    93 PASSED 

address =   997; actual =     7; expected =     7 PASSED 

address =     3; actual =    92; expected =    92 PASSED 

address =   997; actual =     8; expected =     8 PASSED 

address =     3; actual =    91; expected =    91 PASSED 

address =   997; actual =     9; expected =     9 PASSED 

address =     3; actual =    90; expected =    90 PASSED 

address =   997; actual =    10; expected =    10 PASSED 

address =     3; actual =    89; expected =    89 PASSED 

address =   997; actual =    11; expected =    11 PASSED 

address =     3; actual =    88; expected =    88 PASSED 

address =   997; actual =    12; expected =    12 PASSED 

address =     3; actual =    87; expected =    87 PASSED 

address =   997; actual =    13; expected =    13 PASSED 

address =     3; actual =    86; expected =    86 PASSED 

address =   997; actual =    14; expected =    14 PASSED 

address =     3; actual =    85; expected =    85 PASSED 

address =   997; actual =    15; expected =    15 PASSED 

address =     3; actual =    84; expected =    84 PASSED 

address =   997; actual =    16; expected =    16 PASSED 

address =     3; actual =    83; expected =    83 PASSED 

address =   997; actual =    17; expected =    17 PASSED 

address =     3; actual =    82; expected =    82 PASSED 

address =   997; actual =    18; expected =    18 PASSED 

address =     3; actual =    81; expected =    81 PASSED 

address =   997; actual =    19; expected =    19 PASSED 

address =     3; actual =    80; expected =    80 PASSED 

address =   997; actual =    20; expected =    20 PASSED 

address =     3; actual =    79; expected =    79 PASSED 

address =   997; actual =    21; expected =    21 PASSED 

address =     3; actual =    78; expected =    78 PASSED 

address =   997; actual =    22; expected =    22 PASSED 

address =     3; actual =    77; expected =    77 PASSED 

address =   997; actual =    23; expected =    23 PASSED 

address =     3; actual =    76; expected =    76 PASSED 

address =   997; actual =    24; expected =    24 PASSED 

address =     3; actual =    75; expected =    75 PASSED 

address =   997; actual =    25; expected =    25 PASSED 

address =     3; actual =    74; expected =    74 PASSED 

address =   997; actual =    26; expected =    26 PASSED 

address =     3; actual =    73; expected =    73 PASSED 

address =   997; actual =    27; expected =    27 PASSED 

address =     3; actual =    72; expected =    72 PASSED 

address =   997; actual =    28; expected =    28 PASSED 

address =     3; actual =    71; expected =    71 PASSED 

address =   997; actual =    29; expected =    29 PASSED 

address =     4; actual =   100; expected =   100 PASSED 

address =   996; actual =     0; expected =     0 PASSED 

address =     4; actual =    99; expected =    99 PASSED 

address =   996; actual =     1; expected =     1 PASSED 

address =     4; actual =    98; expected =    98 PASSED 

address =   996; actual =     2; expected =     2 PASSED 

address =     4; actual =    97; expected =    97 PASSED 

address =   996; actual =     3; expected =     3 PASSED 

address =     4; actual =    96; expected =    96 PASSED 

address =   996; actual =     4; expected =     4 PASSED 

address =     4; actual =    95; expected =    95 PASSED 

address =   996; actual =     5; expected =     5 PASSED 

address =     4; actual =    94; expected =    94 PASSED 

address =   996; actual =     6; expected =     6 PASSED 

address =     4; actual =    93; expected =    93 PASSED 

address =   996; actual =     7; expected =     7 PASSED 

address =     4; actual =    92; expected =    92 PASSED 

address =   996; actual =     8; expected =     8 PASSED 

address =     4; actual =    91; expected =    91 PASSED 

address =   996; actual =     9; expected =     9 PASSED 

address =     4; actual =    90; expected =    90 PASSED 

address =   996; actual =    10; expected =    10 PASSED 

address =     4; actual =    89; expected =    89 PASSED 

address =   996; actual =    11; expected =    11 PASSED 

address =     4; actual =    88; expected =    88 PASSED 

address =   996; actual =    12; expected =    12 PASSED 

address =     4; actual =    87; expected =    87 PASSED 

address =   996; actual =    13; expected =    13 PASSED 

address =     4; actual =    86; expected =    86 PASSED 

address =   996; actual =    14; expected =    14 PASSED 

address =     4; actual =    85; expected =    85 PASSED 

address =   996; actual =    15; expected =    15 PASSED 

address =     4; actual =    84; expected =    84 PASSED 

address =   996; actual =    16; expected =    16 PASSED 

address =     4; actual =    83; expected =    83 PASSED 

address =   996; actual =    17; expected =    17 PASSED 

address =     4; actual =    82; expected =    82 PASSED 

address =   996; actual =    18; expected =    18 PASSED 

address =     4; actual =    81; expected =    81 PASSED 

address =   996; actual =    19; expected =    19 PASSED 

address =     4; actual =    80; expected =    80 PASSED 

address =   996; actual =    20; expected =    20 PASSED 

address =     4; actual =    79; expected =    79 PASSED 

address =   996; actual =    21; expected =    21 PASSED 

address =     4; actual =    78; expected =    78 PASSED 

address =   996; actual =    22; expected =    22 PASSED 

address =     4; actual =    77; expected =    77 PASSED 

address =   996; actual =    23; expected =    23 PASSED 

address =     4; actual =    76; expected =    76 PASSED 

address =   996; actual =    24; expected =    24 PASSED 

address =     4; actual =    75; expected =    75 PASSED 

address =   996; actual =    25; expected =    25 PASSED 

address =     4; actual =    74; expected =    74 PASSED 

address =   996; actual =    26; expected =    26 PASSED 

address =     4; actual =    73; expected =    73 PASSED 

address =   996; actual =    27; expected =    27 PASSED 

address =     4; actual =    72; expected =    72 PASSED 

address =   996; actual =    28; expected =    28 PASSED 

address =     4; actual =    71; expected =    71 PASSED 

address =   996; actual =    29; expected =    29 PASSED 

address =     5; actual =   100; expected =   100 PASSED 

address =   995; actual =     0; expected =     0 PASSED 

address =     5; actual =    99; expected =    99 PASSED 

address =   995; actual =     1; expected =     1 PASSED 

address =     5; actual =    98; expected =    98 PASSED 

address =   995; actual =     2; expected =     2 PASSED 

address =     5; actual =    97; expected =    97 PASSED 

address =   995; actual =     3; expected =     3 PASSED 

address =     5; actual =    96; expected =    96 PASSED 

address =   995; actual =     4; expected =     4 PASSED 

address =     5; actual =    95; expected =    95 PASSED 

address =   995; actual =     5; expected =     5 PASSED 

address =     5; actual =    94; expected =    94 PASSED 

address =   995; actual =     6; expected =     6 PASSED 

address =     5; actual =    93; expected =    93 PASSED 

address =   995; actual =     7; expected =     7 PASSED 

address =     5; actual =    92; expected =    92 PASSED 

address =   995; actual =     8; expected =     8 PASSED 

address =     5; actual =    91; expected =    91 PASSED 

address =   995; actual =     9; expected =     9 PASSED 

address =     5; actual =    90; expected =    90 PASSED 

address =   995; actual =    10; expected =    10 PASSED 

address =     5; actual =    89; expected =    89 PASSED 

address =   995; actual =    11; expected =    11 PASSED 

address =     5; actual =    88; expected =    88 PASSED 

address =   995; actual =    12; expected =    12 PASSED 

address =     5; actual =    87; expected =    87 PASSED 

address =   995; actual =    13; expected =    13 PASSED 

address =     5; actual =    86; expected =    86 PASSED 

address =   995; actual =    14; expected =    14 PASSED 

address =     5; actual =    85; expected =    85 PASSED 

address =   995; actual =    15; expected =    15 PASSED 

address =     5; actual =    84; expected =    84 PASSED 

address =   995; actual =    16; expected =    16 PASSED 

address =     5; actual =    83; expected =    83 PASSED 

address =   995; actual =    17; expected =    17 PASSED 

address =     5; actual =    82; expected =    82 PASSED 

address =   995; actual =    18; expected =    18 PASSED 

address =     5; actual =    81; expected =    81 PASSED 

address =   995; actual =    19; expected =    19 PASSED 

address =     5; actual =    80; expected =    80 PASSED 

address =   995; actual =    20; expected =    20 PASSED 

address =     5; actual =    79; expected =    79 PASSED 

address =   995; actual =    21; expected =    21 PASSED 

address =     5; actual =    78; expected =    78 PASSED 

address =   995; actual =    22; expected =    22 PASSED 

address =     5; actual =    77; expected =    77 PASSED 

address =   995; actual =    23; expected =    23 PASSED 

address =     5; actual =    76; expected =    76 PASSED 

address =   995; actual =    24; expected =    24 PASSED 

address =     5; actual =    75; expected =    75 PASSED 

address =   995; actual =    25; expected =    25 PASSED 

address =     5; actual =    74; expected =    74 PASSED 

address =   995; actual =    26; expected =    26 PASSED 

address =     5; actual =    73; expected =    73 PASSED 

address =   995; actual =    27; expected =    27 PASSED 

address =     5; actual =    72; expected =    72 PASSED 

address =   995; actual =    28; expected =    28 PASSED 

address =     5; actual =    71; expected =    71 PASSED 

address =   995; actual =    29; expected =    29 PASSED 

address =     6; actual =   100; expected =   100 PASSED 

address =   994; actual =     0; expected =     0 PASSED 

address =     6; actual =    99; expected =    99 PASSED 

address =   994; actual =     1; expected =     1 PASSED 

address =     6; actual =    98; expected =    98 PASSED 

address =   994; actual =     2; expected =     2 PASSED 

address =     6; actual =    97; expected =    97 PASSED 

address =   994; actual =     3; expected =     3 PASSED 

address =     6; actual =    96; expected =    96 PASSED 

address =   994; actual =     4; expected =     4 PASSED 

address =     6; actual =    95; expected =    95 PASSED 

address =   994; actual =     5; expected =     5 PASSED 

address =     6; actual =    94; expected =    94 PASSED 

address =   994; actual =     6; expected =     6 PASSED 

address =     6; actual =    93; expected =    93 PASSED 

address =   994; actual =     7; expected =     7 PASSED 

address =     6; actual =    92; expected =    92 PASSED 

address =   994; actual =     8; expected =     8 PASSED 

address =     6; actual =    91; expected =    91 PASSED 

address =   994; actual =     9; expected =     9 PASSED 

address =     6; actual =    90; expected =    90 PASSED 

address =   994; actual =    10; expected =    10 PASSED 

address =     6; actual =    89; expected =    89 PASSED 

address =   994; actual =    11; expected =    11 PASSED 

address =     6; actual =    88; expected =    88 PASSED 

address =   994; actual =    12; expected =    12 PASSED 

address =     6; actual =    87; expected =    87 PASSED 

address =   994; actual =    13; expected =    13 PASSED 

address =     6; actual =    86; expected =    86 PASSED 

address =   994; actual =    14; expected =    14 PASSED 

address =     6; actual =    85; expected =    85 PASSED 

address =   994; actual =    15; expected =    15 PASSED 

address =     6; actual =    84; expected =    84 PASSED 

address =   994; actual =    16; expected =    16 PASSED 

address =     6; actual =    83; expected =    83 PASSED 

address =   994; actual =    17; expected =    17 PASSED 

address =     6; actual =    82; expected =    82 PASSED 

address =   994; actual =    18; expected =    18 PASSED 

address =     6; actual =    81; expected =    81 PASSED 

address =   994; actual =    19; expected =    19 PASSED 

address =     6; actual =    80; expected =    80 PASSED 

address =   994; actual =    20; expected =    20 PASSED 

address =     6; actual =    79; expected =    79 PASSED 

address =   994; actual =    21; expected =    21 PASSED 

address =     6; actual =    78; expected =    78 PASSED 

address =   994; actual =    22; expected =    22 PASSED 

address =     6; actual =    77; expected =    77 PASSED 

address =   994; actual =    23; expected =    23 PASSED 

address =     6; actual =    76; expected =    76 PASSED 

address =   994; actual =    24; expected =    24 PASSED 

address =     6; actual =    75; expected =    75 PASSED 

address =   994; actual =    25; expected =    25 PASSED 

address =     6; actual =    74; expected =    74 PASSED 

address =   994; actual =    26; expected =    26 PASSED 

address =     6; actual =    73; expected =    73 PASSED 

address =   994; actual =    27; expected =    27 PASSED 

address =     6; actual =    72; expected =    72 PASSED 

address =   994; actual =    28; expected =    28 PASSED 

address =     6; actual =    71; expected =    71 PASSED 

address =   994; actual =    29; expected =    29 PASSED 

address =     7; actual =   100; expected =   100 PASSED 

address =   993; actual =     0; expected =     0 PASSED 

address =     7; actual =    99; expected =    99 PASSED 

address =   993; actual =     1; expected =     1 PASSED 

address =     7; actual =    98; expected =    98 PASSED 

address =   993; actual =     2; expected =     2 PASSED 

address =     7; actual =    97; expected =    97 PASSED 

address =   993; actual =     3; expected =     3 PASSED 

address =     7; actual =    96; expected =    96 PASSED 

address =   993; actual =     4; expected =     4 PASSED 

address =     7; actual =    95; expected =    95 PASSED 

address =   993; actual =     5; expected =     5 PASSED 

address =     7; actual =    94; expected =    94 PASSED 

address =   993; actual =     6; expected =     6 PASSED 

address =     7; actual =    93; expected =    93 PASSED 

address =   993; actual =     7; expected =     7 PASSED 

address =     7; actual =    92; expected =    92 PASSED 

address =   993; actual =     8; expected =     8 PASSED 

address =     7; actual =    91; expected =    91 PASSED 

address =   993; actual =     9; expected =     9 PASSED 

address =     7; actual =    90; expected =    90 PASSED 

address =   993; actual =    10; expected =    10 PASSED 

address =     7; actual =    89; expected =    89 PASSED 

address =   993; actual =    11; expected =    11 PASSED 

address =     7; actual =    88; expected =    88 PASSED 

address =   993; actual =    12; expected =    12 PASSED 

address =     7; actual =    87; expected =    87 PASSED 

address =   993; actual =    13; expected =    13 PASSED 

address =     7; actual =    86; expected =    86 PASSED 

address =   993; actual =    14; expected =    14 PASSED 

address =     7; actual =    85; expected =    85 PASSED 

address =   993; actual =    15; expected =    15 PASSED 

address =     7; actual =    84; expected =    84 PASSED 

address =   993; actual =    16; expected =    16 PASSED 

address =     7; actual =    83; expected =    83 PASSED 

address =   993; actual =    17; expected =    17 PASSED 

address =     7; actual =    82; expected =    82 PASSED 

address =   993; actual =    18; expected =    18 PASSED 

address =     7; actual =    81; expected =    81 PASSED 

address =   993; actual =    19; expected =    19 PASSED 

address =     7; actual =    80; expected =    80 PASSED 

address =   993; actual =    20; expected =    20 PASSED 

address =     7; actual =    79; expected =    79 PASSED 

address =   993; actual =    21; expected =    21 PASSED 

address =     7; actual =    78; expected =    78 PASSED 

address =   993; actual =    22; expected =    22 PASSED 

address =     7; actual =    77; expected =    77 PASSED 

address =   993; actual =    23; expected =    23 PASSED 

address =     7; actual =    76; expected =    76 PASSED 

address =   993; actual =    24; expected =    24 PASSED 

address =     7; actual =    75; expected =    75 PASSED 

address =   993; actual =    25; expected =    25 PASSED 

address =     7; actual =    74; expected =    74 PASSED 

address =   993; actual =    26; expected =    26 PASSED 

address =     7; actual =    73; expected =    73 PASSED 

address =   993; actual =    27; expected =    27 PASSED 

address =     7; actual =    72; expected =    72 PASSED 

address =   993; actual =    28; expected =    28 PASSED 

address =     7; actual =    71; expected =    71 PASSED 

address =   993; actual =    29; expected =    29 PASSED 

address =     8; actual =   100; expected =   100 PASSED 

address =   992; actual =     0; expected =     0 PASSED 

address =     8; actual =    99; expected =    99 PASSED 

address =   992; actual =     1; expected =     1 PASSED 

address =     8; actual =    98; expected =    98 PASSED 

address =   992; actual =     2; expected =     2 PASSED 

address =     8; actual =    97; expected =    97 PASSED 

address =   992; actual =     3; expected =     3 PASSED 

address =     8; actual =    96; expected =    96 PASSED 

address =   992; actual =     4; expected =     4 PASSED 

address =     8; actual =    95; expected =    95 PASSED 

address =   992; actual =     5; expected =     5 PASSED 

address =     8; actual =    94; expected =    94 PASSED 

address =   992; actual =     6; expected =     6 PASSED 

address =     8; actual =    93; expected =    93 PASSED 

address =   992; actual =     7; expected =     7 PASSED 

address =     8; actual =    92; expected =    92 PASSED 

address =   992; actual =     8; expected =     8 PASSED 

address =     8; actual =    91; expected =    91 PASSED 

address =   992; actual =     9; expected =     9 PASSED 

address =     8; actual =    90; expected =    90 PASSED 

address =   992; actual =    10; expected =    10 PASSED 

address =     8; actual =    89; expected =    89 PASSED 

address =   992; actual =    11; expected =    11 PASSED 

address =     8; actual =    88; expected =    88 PASSED 

address =   992; actual =    12; expected =    12 PASSED 

address =     8; actual =    87; expected =    87 PASSED 

address =   992; actual =    13; expected =    13 PASSED 

address =     8; actual =    86; expected =    86 PASSED 

address =   992; actual =    14; expected =    14 PASSED 

address =     8; actual =    85; expected =    85 PASSED 

address =   992; actual =    15; expected =    15 PASSED 

address =     8; actual =    84; expected =    84 PASSED 

address =   992; actual =    16; expected =    16 PASSED 

address =     8; actual =    83; expected =    83 PASSED 

address =   992; actual =    17; expected =    17 PASSED 

address =     8; actual =    82; expected =    82 PASSED 

address =   992; actual =    18; expected =    18 PASSED 

address =     8; actual =    81; expected =    81 PASSED 

address =   992; actual =    19; expected =    19 PASSED 

address =     8; actual =    80; expected =    80 PASSED 

address =   992; actual =    20; expected =    20 PASSED 

address =     8; actual =    79; expected =    79 PASSED 

address =   992; actual =    21; expected =    21 PASSED 

address =     8; actual =    78; expected =    78 PASSED 

address =   992; actual =    22; expected =    22 PASSED 

address =     8; actual =    77; expected =    77 PASSED 

address =   992; actual =    23; expected =    23 PASSED 

address =     8; actual =    76; expected =    76 PASSED 

address =   992; actual =    24; expected =    24 PASSED 

address =     8; actual =    75; expected =    75 PASSED 

address =   992; actual =    25; expected =    25 PASSED 

address =     8; actual =    74; expected =    74 PASSED 

address =   992; actual =    26; expected =    26 PASSED 

address =     8; actual =    73; expected =    73 PASSED 

address =   992; actual =    27; expected =    27 PASSED 

address =     8; actual =    72; expected =    72 PASSED 

address =   992; actual =    28; expected =    28 PASSED 

address =     8; actual =    71; expected =    71 PASSED 

address =   992; actual =    29; expected =    29 PASSED 

address =     9; actual =   100; expected =   100 PASSED 

address =   991; actual =     0; expected =     0 PASSED 

address =     9; actual =    99; expected =    99 PASSED 

address =   991; actual =     1; expected =     1 PASSED 

address =     9; actual =    98; expected =    98 PASSED 

address =   991; actual =     2; expected =     2 PASSED 

address =     9; actual =    97; expected =    97 PASSED 

address =   991; actual =     3; expected =     3 PASSED 

address =     9; actual =    96; expected =    96 PASSED 

address =   991; actual =     4; expected =     4 PASSED 

address =     9; actual =    95; expected =    95 PASSED 

address =   991; actual =     5; expected =     5 PASSED 

address =     9; actual =    94; expected =    94 PASSED 

address =   991; actual =     6; expected =     6 PASSED 

address =     9; actual =    93; expected =    93 PASSED 

address =   991; actual =     7; expected =     7 PASSED 

address =     9; actual =    92; expected =    92 PASSED 

address =   991; actual =     8; expected =     8 PASSED 

address =     9; actual =    91; expected =    91 PASSED 

address =   991; actual =     9; expected =     9 PASSED 

address =     9; actual =    90; expected =    90 PASSED 

address =   991; actual =    10; expected =    10 PASSED 

address =     9; actual =    89; expected =    89 PASSED 

address =   991; actual =    11; expected =    11 PASSED 

address =     9; actual =    88; expected =    88 PASSED 

address =   991; actual =    12; expected =    12 PASSED 

address =     9; actual =    87; expected =    87 PASSED 

address =   991; actual =    13; expected =    13 PASSED 

address =     9; actual =    86; expected =    86 PASSED 

address =   991; actual =    14; expected =    14 PASSED 

address =     9; actual =    85; expected =    85 PASSED 

address =   991; actual =    15; expected =    15 PASSED 

address =     9; actual =    84; expected =    84 PASSED 

address =   991; actual =    16; expected =    16 PASSED 

address =     9; actual =    83; expected =    83 PASSED 

address =   991; actual =    17; expected =    17 PASSED 

address =     9; actual =    82; expected =    82 PASSED 

address =   991; actual =    18; expected =    18 PASSED 

address =     9; actual =    81; expected =    81 PASSED 

address =   991; actual =    19; expected =    19 PASSED 

address =     9; actual =    80; expected =    80 PASSED 

address =   991; actual =    20; expected =    20 PASSED 

address =     9; actual =    79; expected =    79 PASSED 

address =   991; actual =    21; expected =    21 PASSED 

address =     9; actual =    78; expected =    78 PASSED 

address =   991; actual =    22; expected =    22 PASSED 

address =     9; actual =    77; expected =    77 PASSED 

address =   991; actual =    23; expected =    23 PASSED 

address =     9; actual =    76; expected =    76 PASSED 

address =   991; actual =    24; expected =    24 PASSED 

address =     9; actual =    75; expected =    75 PASSED 

address =   991; actual =    25; expected =    25 PASSED 

address =     9; actual =    74; expected =    74 PASSED 

address =   991; actual =    26; expected =    26 PASSED 

address =     9; actual =    73; expected =    73 PASSED 

address =   991; actual =    27; expected =    27 PASSED 

address =     9; actual =    72; expected =    72 PASSED 

address =   991; actual =    28; expected =    28 PASSED 

address =     9; actual =    71; expected =    71 PASSED 

address =   991; actual =    29; expected =    29 PASSED 

address =    10; actual =   100; expected =   100 PASSED 

address =   990; actual =     0; expected =     0 PASSED 

address =    10; actual =    99; expected =    99 PASSED 

address =   990; actual =     1; expected =     1 PASSED 

address =    10; actual =    98; expected =    98 PASSED 

address =   990; actual =     2; expected =     2 PASSED 

address =    10; actual =    97; expected =    97 PASSED 

address =   990; actual =     3; expected =     3 PASSED 

address =    10; actual =    96; expected =    96 PASSED 

address =   990; actual =     4; expected =     4 PASSED 

address =    10; actual =    95; expected =    95 PASSED 

address =   990; actual =     5; expected =     5 PASSED 

address =    10; actual =    94; expected =    94 PASSED 

address =   990; actual =     6; expected =     6 PASSED 

address =    10; actual =    93; expected =    93 PASSED 

address =   990; actual =     7; expected =     7 PASSED 

address =    10; actual =    92; expected =    92 PASSED 

address =   990; actual =     8; expected =     8 PASSED 

